{
  "type": "service_account",
  "project_id": "newthinking-73908",
  "private_key_id": "e5f472266c9838020e6363de2f7959aab91034ed",
  "private_key": "-----BEGIN PRIVATE KEY-----\nMIIEvQIBADANBgkqhkiG9w0BAQEFAASCBKcwggSjAgEAAoIBAQC7rJgAeuLtP8on\nLQ3ljuxO4QLBpV8zrmNHGgu85rMN9UESrs7PV73iO4iKvmjPauguNpOh+nE3/n9f\non5M+DM7IjxaG7a8HM7ATMGQmRsSOIkY0WvLJRAYCEb+Cy6ZNxOeVFfXW4R5YQpD\nzjBfRLV3Bh6qjGUVEvnabB2QZs2As9uCzH09ssP/xH+HR66Tq8YLpdeyFBIh20qE\nBg+bKZYWZV0Of54/2zxM2Ns10UOxlWIJx7uGKiFOgrtR1O6dPLN78RDQYb0UGsiI\nc5eLG1DMekFXl6DPVOIJ3FOyTR4W7j476yY2HrIpfSSDkBTjlJYQkFy/97s7vWCJ\n0MG1Pe8zAgMBAAECggEAFmlLHOI6iiQQIx3YEdM/o0BvNf+7vtiy21FKwzag0uhi\n6nUR66Rp365wpPI4Yu3nJxRLt0/zHZbYesD//cy1QCOw+v5h6Sne2LZHIS+KEjgf\nyw/AecRbHSY+kA92yO4mUMXNWEGCBYVR6/yfPdPfKwUB5tJC2ew9Blkwg0d7f+8G\nIbaajdPRCYVcDbpkeDbz/rS+HsX5xGMcdSKLiW5Eg2f2D8TVRZtIqJeHetyDe5TL\nFTKpVPDpomepYYEmvFH29RSfiJ7bdp7pFLfeOIJut/pMB/OzjkiHuBK0Bf0ZN819\n3yWSeQvM6VKF9SUy5ITxXjKxG7fIBM8wGGJ/v4y2XQKBgQDbd9gqIxZALmYpGqr6\nV5Cxy62wp2Ny2ne3Ztd+B184XebyFhnsfjxViGiu5Jeb6Y7egGTlgQpKqzylrfs4\nW0i5q87yfjjbPpXEdP1WPwWuqB/GAVpf4v7hc5xL+85EnHyASskhdvhkm1+UdF5L\nVHGOgeo1cKMomvQAC9cpu0c5rwKBgQDa6etyIH4ewJdcZuqw46tVDNh0vBrHOomg\nuXq4HIRchWO3TIAGc7OqAtmCp8+UVk7stoelREaC0SKwBMFL4K5Uucc9HDON1WBj\nvWxg32BJywqmnbGd0oIKtSBNj3p8nZn+CL8Xfzqxrca02nyiQWTm3RfNdjdX6MVV\ntiWu9ah3vQKBgCf+jAcJw9lIW1esQ3JBmN29t1ZU+ruIcn6aoDSYVVLpUdfWDT1a\nt9YCeMk+YR6Jjn6fuUNVo7F9yRyMOxbHE9a6J4lrVSMnIZXel/gqnfd5Lekgf/6v\nWDFvpxD1v14jglDC0CpoCtYStnVQS4rAxbzpkevRLfqNWl/TyI8TUOSDAoGBAKyu\nOHseBl5brQnGZPqDnHLKXzQ17Smak1Wk+ZihZgdVcQL15UcxnVdOSCU4GhX4vuka\nUoWbBcPLFIGkPpWL9ff/U5pw1HndBtumYAdKLLoI363uVl0X4Fxx47lKpGQILaCl\nZZczVSky2rtuXUHgM6eoX05DIgTGKGMj+zW3sdxBAoGAK/Q8s8qiIjolsQevbh61\n+WpujN2aJZvx7FqgNa1m4+bmjk0NEvfh8Et9CMmlh0+XDy2sE33EVCwLPnjW/lcD\nfNFQV5+2xZeuDjU6iwirZh4asbZAkWcopgyLVeOXpWDo3nLanh5Ujfu+N9ABC60f\nJ0yJGFH8Lx/FwtxYugUxaR0=\n-----END PRIVATE KEY-----\n",
  "client_email": "firebase-adminsdk-5wl91@newthinking-73908.iam.gserviceaccount.com",
  "client_id": "105712866839402096044",
  "auth_uri": "https://accounts.google.com/o/oauth2/auth",
  "token_uri": "https://oauth2.googleapis.com/token",
  "auth_provider_x509_cert_url": "https://www.googleapis.com/oauth2/v1/certs",
  "client_x509_cert_url": "https://www.googleapis.com/robot/v1/metadata/x509/firebase-adminsdk-5wl91%40newthinking-73908.iam.gserviceaccount.com",
  "universe_domain": "googleapis.com"
}
