
==============================================================================
[問Gemini]

const http = require('http');
const server = http.createServer(function(req, res){});
server.listen(8081);

參考上述簡易node寫法, MVC架構, 一個html操作頁面,
1. 上述頁面有input輸入框可輸入收信mail, 有個 text area 可輸入送信內容, 並有路由可進入該頁面
2. 按下按鈕後送出信件, 並會於頁面上顯示是否送出成功。
3. 請使用 js 撰寫mail 真實送出, js 設計一個發信伺服器, 可送信給 gmail, hotmail, 等等。
4. 若送信失敗, 請印出失敗原因, 收信方的錯誤 response


==============================================================================
project/
  views/
    index.html
  public/
    styles.css
    scripts.js
  routes/
    mail.js
  app.js


npm init -y
npm install express nodemailer ejs

==============================================================================  





